dump.vcd
$date
  Mon Apr 27 18:32:42 2020
$end
$version
  GHDL v0
$end
$timescale
  1 fs
$end
$var reg 10 ! tb_m[9:0] $end
$var reg 10 " tb_r[9:0] $end
$var reg 20 # tb_product[19:0] $end
$var reg 1 $ tb_clk $end
$var reg 1 % tb_nrst $end
$var reg 1 & tb_load $end
$var reg 1 ' tb_start $end
$var reg 1 ( tb_done $end
$var reg 1 ) simulationactive $end
$var reg 1 * behavioral_model_done $end
$var reg 20 + actual_product[19:0] $end
$scope module dut $end
$var reg 10 , m[9:0] $end
$var reg 10 - r[9:0] $end
$var reg 20 . product[19:0] $end
$var reg 1 / clk $end
$var reg 1 0 nrst $end
$var reg 1 1 load $end
$var reg 1 2 start $end
$var reg 1 3 done $end
$comment p_state is not handled $end
$comment n_state is not handled $end
$var reg 10 4 reg_m[9:0] $end
$var reg 10 5 reg_r[9:0] $end
$var reg 21 6 temp_prod[20:0] $end
$var reg 1 7 busy $end
$var integer 32 8 count $end
$upscope $end
$enddefinitions $end
#0
b0000000000 !
b0000000000 "
b00000000000000000000 #
0$
0%
0&
0'
0(
1)
0*
bUUUUUUUUUUUUUUUUUUUU +
b0000000000 ,
b0000000000 -
b00000000000000000000 .
0/
00
01
02
03
b0000000000 4
b0000000000 5
b0000000000UUUUUUUUUU0 6
07
b1010 8
#5000
1$
1/
b000000000000000000000 6
#10000
0$
1%
0/
10
#15000
1$
1/
#20000
0$
0/
#25000
1$
1/
#30000
b1111101101 "
0$
1&
b00000000000000000000 +
b1111101101 -
0/
11
#35000
1$
1/
b1111101101 5
#40000
0$
0&
1'
0/
01
12
#45000
1$
1/
b000000000011111011010 6
17
#50000
0$
0'
0/
02
#55000
1$
1/
b000000000001111101101 6
b1001 8
#60000
0$
0/
#65000
1$
1/
b000000000000111110110 6
b1000 8
#70000
0$
0/
#75000
1$
1/
b000000000000011111011 6
b111 8
#80000
0$
0/
#85000
1$
1/
b000000000000001111101 6
b110 8
#90000
0$
0/
#95000
1$
1/
b000000000000000111110 6
b101 8
#100000
0$
0/
#105000
1$
1/
b000000000000000011111 6
b100 8
#110000
0$
0/
#115000
1$
1/
b000000000000000001111 6
b11 8
#120000
0$
0/
#125000
1$
1/
b000000000000000000111 6
b10 8
#130000
0$
0/
#135000
1$
1/
b000000000000000000011 6
b1 8
#140000
0$
0/
#145000
1$
1(
1*
1/
13
b000000000000000000001 6
07
b0 8
#150000
0$
0/
#155000
1$
0(
1/
03
b000000000011111011010 6
b1010 8
#160000
b1111101110 "
0$
1&
0*
b1111101110 -
0/
11
#165000
1$
1/
b1111101110 5
#170000
0$
0&
1'
0/
01
12
#175000
1$
1/
b000000000011111011100 6
17
#180000
0$
0'
0/
02
#185000
1$
1/
b000000000001111101110 6
b1001 8
#190000
0$
0/
#195000
1$
1/
b000000000000111110111 6
b1000 8
#200000
0$
0/
#205000
1$
1/
b000000000000011111011 6
b111 8
#210000
0$
0/
#215000
1$
1/
b000000000000001111101 6
b110 8
#220000
0$
0/
#225000
1$
1/
b000000000000000111110 6
b101 8
#230000
0$
0/
#235000
1$
1/
b000000000000000011111 6
b100 8
#240000
0$
0/
#245000
1$
1/
b000000000000000001111 6
b11 8
#250000
0$
0/
#255000
1$
1/
b000000000000000000111 6
b10 8
#260000
0$
0/
#265000
1$
1/
b000000000000000000011 6
b1 8
#270000
0$
0/
#275000
1$
1(
1*
1/
13
b000000000000000000001 6
07
b0 8
#280000
0$
0/
#285000
1$
0(
1/
03
b000000000011111011100 6
b1010 8
#290000
b1111101111 "
0$
1&
0*
b1111101111 -
0/
11
#295000
1$
1/
b1111101111 5
#300000
0$
0&
1'
0/
01
12
#305000
1$
1/
b000000000011111011110 6
17
#310000
0$
0'
0/
02
#315000
1$
1/
b000000000001111101111 6
b1001 8
#320000
0$
0/
#325000
1$
1/
b000000000000111110111 6
b1000 8
#330000
0$
0/
#335000
1$
1/
b000000000000011111011 6
b111 8
#340000
0$
0/
#345000
1$
1/
b000000000000001111101 6
b110 8
#350000
0$
0/
#355000
1$
1/
b000000000000000111110 6
b101 8
#360000
0$
0/
#365000
1$
1/
b000000000000000011111 6
b100 8
#370000
0$
0/
#375000
1$
1/
b000000000000000001111 6
b11 8
#380000
0$
0/
#385000
1$
1/
b000000000000000000111 6
b10 8
#390000
0$
0/
#395000
1$
1/
b000000000000000000011 6
b1 8
#400000
0$
0/
#405000
1$
1(
1*
1/
13
b000000000000000000001 6
07
b0 8
#410000
0$
0/
#415000
1$
0(
1/
03
b000000000011111011110 6
b1010 8
#420000
b1111110000 "
0$
1&
0*
b1111110000 -
0/
11
#425000
1$
1/
b1111110000 5
#430000
0$
0&
1'
0/
01
12
#435000
1$
1/
b000000000011111100000 6
17
#440000
0$
0'
0/
02
#445000
1$
1/
b000000000001111110000 6
b1001 8
#450000
0$
0/
#455000
1$
1/
b000000000000111111000 6
b1000 8
#460000
0$
0/
#465000
1$
1/
b000000000000011111100 6
b111 8
#470000
0$
0/
#475000
1$
1/
b000000000000001111110 6
b110 8
#480000
0$
0/
#485000
1$
1/
b000000000000000111111 6
b101 8
#490000
0$
0/
#495000
1$
1/
b000000000000000011111 6
b100 8
#500000
0$
0/
#505000
1$
1/
b000000000000000001111 6
b11 8
#510000
0$
0/
#515000
1$
1/
b000000000000000000111 6
b10 8
#520000
0$
0/
#525000
1$
1/
b000000000000000000011 6
b1 8
#530000
0$
0/
#535000
1$
1(
1*
1/
13
b000000000000000000001 6
07
b0 8
#540000
0$
0/
#545000
1$
0(
1/
03
b000000000011111100000 6
b1010 8
#550000
b1111110001 "
0$
1&
0*
b1111110001 -
0/
11
#555000
1$
1/
b1111110001 5
#560000
0$
0&
1'
0/
01
12
#565000
1$
1/
b000000000011111100010 6
17
#570000
0$
0'
0/
02
#575000
1$
1/
b000000000001111110001 6
b1001 8
#580000
0$
0/
#585000
1$
1/
b000000000000111111000 6
b1000 8
#590000
0$
0/
#595000
1$
1/
b000000000000011111100 6
b111 8
#600000
0$
0/
#605000
1$
1/
b000000000000001111110 6
b110 8
#610000
0$
0/
#615000
1$
1/
b000000000000000111111 6
b101 8
#620000
0$
0/
#625000
1$
1/
b000000000000000011111 6
b100 8
#630000
0$
0/
#635000
1$
1/
b000000000000000001111 6
b11 8
#640000
0$
0/
#645000
1$
1/
b000000000000000000111 6
b10 8
#650000
0$
0/
#655000
1$
1/
b000000000000000000011 6
b1 8
#660000
0$
0/
#665000
1$
1(
1*
1/
13
b000000000000000000001 6
07
b0 8
#670000
0$
0/
#675000
1$
0(
1/
03
b000000000011111100010 6
b1010 8
#680000
b1111110010 "
0$
1&
0*
b1111110010 -
0/
11
#685000
1$
1/
b1111110010 5
#690000
0$
0&
1'
0/
01
12
#695000
1$
1/
b000000000011111100100 6
17
#700000
0$
0'
0/
02
#705000
1$
1/
b000000000001111110010 6
b1001 8
#710000
0$
0/
#715000
1$
1/
b000000000000111111001 6
b1000 8
#720000
0$
0/
#725000
1$
1/
b000000000000011111100 6
b111 8
#730000
0$
0/
#735000
1$
1/
b000000000000001111110 6
b110 8
#740000
0$
0/
#745000
1$
1/
b000000000000000111111 6
b101 8
#750000
0$
0/
#755000
1$
1/
b000000000000000011111 6
b100 8
#760000
0$
0/
#765000
1$
1/
b000000000000000001111 6
b11 8
#770000
0$
0/
#775000
1$
1/
b000000000000000000111 6
b10 8
#780000
0$
0/
#785000
1$
1/
b000000000000000000011 6
b1 8
#790000
0$
0/
#795000
1$
1(
1*
1/
13
b000000000000000000001 6
07
b0 8
#800000
0$
0/
#805000
1$
0(
1/
03
b000000000011111100100 6
b1010 8
#810000
b1111110011 "
0$
1&
0*
b1111110011 -
0/
11
#815000
1$
1/
b1111110011 5
#820000
0$
0&
1'
0/
01
12
#825000
1$
1/
b000000000011111100110 6
17
#830000
0$
0'
0/
02
#835000
1$
1/
b000000000001111110011 6
b1001 8
#840000
0$
0/
#845000
1$
1/
b000000000000111111001 6
b1000 8
#850000
0$
0/
#855000
1$
1/
b000000000000011111100 6
b111 8
#860000
0$
0/
#865000
1$
1/
b000000000000001111110 6
b110 8
#870000
0$
0/
#875000
1$
1/
b000000000000000111111 6
b101 8
#880000
0$
0/
#885000
1$
1/
b000000000000000011111 6
b100 8
#890000
0$
0/
#895000
1$
1/
b000000000000000001111 6
b11 8
#900000
0$
0/
#905000
1$
1/
b000000000000000000111 6
b10 8
#910000
0$
0/
#915000
1$
1/
b000000000000000000011 6
b1 8
#920000
0$
0/
#925000
1$
1(
1*
1/
13
b000000000000000000001 6
07
b0 8
#930000
0$
0/
#935000
1$
0(
1/
03
b000000000011111100110 6
b1010 8
#940000
b1111110100 "
0$
1&
0*
b1111110100 -
0/
11
#945000
1$
1/
b1111110100 5
#950000
0$
0&
1'
0/
01
12
#955000
1$
1/
b000000000011111101000 6
17
#960000
0$
0'
0/
02
#965000
1$
1/
b000000000001111110100 6
b1001 8
#970000
0$
0/
#975000
1$
1/
b000000000000111111010 6
b1000 8
#980000
0$
0/
#985000
1$
1/
b000000000000011111101 6
b111 8
#990000
0$
0/
#995000
1$
1/
b000000000000001111110 6
b110 8
#1000000
0$
0/
#1005000
1$
1/
b000000000000000111111 6
b101 8
#1010000
0$
0/
#1015000
1$
1/
b000000000000000011111 6
b100 8
#1020000
0$
0/
#1025000
1$
1/
b000000000000000001111 6
b11 8
#1030000
0$
0/
#1035000
1$
1/
b000000000000000000111 6
b10 8
#1040000
0$
0/
#1045000
1$
1/
b000000000000000000011 6
b1 8
#1050000
0$
0/
#1055000
1$
1(
1*
1/
13
b000000000000000000001 6
07
b0 8
#1060000
0$
0/
#1065000
1$
0(
1/
03
b000000000011111101000 6
b1010 8
#1070000
b1111110101 "
0$
1&
0*
b1111110101 -
0/
11
#1075000
1$
1/
b1111110101 5
#1080000
0$
0&
1'
0/
01
12
#1085000
1$
1/
b000000000011111101010 6
17
#1090000
0$
0'
0/
02
#1095000
1$
1/
b000000000001111110101 6
b1001 8
#1100000
0$
0/
#1105000
1$
1/
b000000000000111111010 6
b1000 8
#1110000
0$
0/
#1115000
1$
1/
b000000000000011111101 6
b111 8
#1120000
0$
0/
#1125000
1$
1/
b000000000000001111110 6
b110 8
#1130000
0$
0/
#1135000
1$
1/
b000000000000000111111 6
b101 8
#1140000
0$
0/
#1145000
1$
1/
b000000000000000011111 6
b100 8
#1150000
0$
0/
#1155000
1$
1/
b000000000000000001111 6
b11 8
#1160000
0$
0/
#1165000
1$
1/
b000000000000000000111 6
b10 8
#1170000
0$
0/
#1175000
1$
1/
b000000000000000000011 6
b1 8
#1180000
0$
0/
#1185000
1$
1(
1*
1/
13
b000000000000000000001 6
07
b0 8
#1190000
0$
0/
#1195000
1$
0(
1/
03
b000000000011111101010 6
b1010 8
#1200000
b1111110110 "
0$
1&
0*
b1111110110 -
0/
11
#1205000
1$
1/
b1111110110 5
#1210000
0$
0&
1'
0/
01
12
#1215000
1$
1/
b000000000011111101100 6
17
#1220000
0$
0'
0/
02
#1225000
1$
1/
b000000000001111110110 6
b1001 8
#1230000
0$
0/
#1235000
1$
1/
b000000000000111111011 6
b1000 8
#1240000
0$
0/
#1245000
1$
1/
b000000000000011111101 6
b111 8
#1250000
0$
0/
#1255000
1$
1/
b000000000000001111110 6
b110 8
#1260000
0$
0/
#1265000
1$
1/
b000000000000000111111 6
b101 8
#1270000
0$
0/
#1275000
1$
1/
b000000000000000011111 6
b100 8
#1280000
0$
0/
#1285000
1$
1/
b000000000000000001111 6
b11 8
#1290000
0$
0/
#1295000
1$
1/
b000000000000000000111 6
b10 8
#1300000
0$
0/
#1305000
1$
1/
b000000000000000000011 6
b1 8
#1310000
0$
0/
#1315000
1$
1(
1*
1/
13
b000000000000000000001 6
07
b0 8
#1320000
0$
0/
#1325000
1$
0(
1/
03
b000000000011111101100 6
b1010 8
#1330000
b1111110111 "
0$
1&
0*
b1111110111 -
0/
11
#1335000
1$
1/
b1111110111 5
#1340000
0$
0&
1'
0/
01
12
#1345000
1$
1/
b000000000011111101110 6
17
#1350000
0$
0'
0/
02
#1355000
1$
1/
b000000000001111110111 6
b1001 8
#1360000
0$
0/
#1365000
1$
1/
b000000000000111111011 6
b1000 8
#1370000
0$
0/
#1375000
1$
1/
b000000000000011111101 6
b111 8
#1380000
0$
0/
#1385000
1$
1/
b000000000000001111110 6
b110 8
#1390000
0$
0/
#1395000
1$
1/
b000000000000000111111 6
b101 8
#1400000
0$
0/
#1405000
1$
1/
b000000000000000011111 6
b100 8
#1410000
0$
0/
#1415000
1$
1/
b000000000000000001111 6
b11 8
#1420000
0$
0/
#1425000
1$
1/
b000000000000000000111 6
b10 8
#1430000
0$
0/
#1435000
1$
1/
b000000000000000000011 6
b1 8
#1440000
0$
0/
#1445000
1$
1(
1*
1/
13
b000000000000000000001 6
07
b0 8
#1450000
0$
0/
#1455000
1$
0(
1/
03
b000000000011111101110 6
b1010 8
#1460000
b1111111000 "
0$
1&
0*
b1111111000 -
0/
11
#1465000
1$
1/
b1111111000 5
#1470000
0$
0&
1'
0/
01
12
#1475000
1$
1/
b000000000011111110000 6
17
#1480000
0$
0'
0/
02
#1485000
1$
1/
b000000000001111111000 6
b1001 8
#1490000
0$
0/
#1495000
1$
1/
b000000000000111111100 6
b1000 8
#1500000
0$
0/
#1505000
1$
1/
b000000000000011111110 6
b111 8
#1510000
0$
0/
#1515000
1$
1/
b000000000000001111111 6
b110 8
#1520000
0$
0/
#1525000
1$
1/
b000000000000000111111 6
b101 8
#1530000
0$
0/
#1535000
1$
1/
b000000000000000011111 6
b100 8
#1540000
0$
0/
#1545000
1$
1/
b000000000000000001111 6
b11 8
#1550000
0$
0/
#1555000
1$
1/
b000000000000000000111 6
b10 8
#1560000
0$
0/
#1565000
1$
1/
b000000000000000000011 6
b1 8
#1570000
0$
0/
#1575000
1$
1(
1*
1/
13
b000000000000000000001 6
07
b0 8
#1580000
0$
0/
#1585000
1$
0(
1/
03
b000000000011111110000 6
b1010 8
#1590000
b1111111001 "
0$
1&
0*
b1111111001 -
0/
11
#1595000
1$
1/
b1111111001 5
#1600000
0$
0&
1'
0/
01
12
#1605000
1$
1/
b000000000011111110010 6
17
#1610000
0$
0'
0/
02
#1615000
1$
1/
b000000000001111111001 6
b1001 8
#1620000
0$
0/
#1625000
1$
1/
b000000000000111111100 6
b1000 8
#1630000
0$
0/
#1635000
1$
1/
b000000000000011111110 6
b111 8
#1640000
0$
0/
#1645000
1$
1/
b000000000000001111111 6
b110 8
#1650000
0$
0/
#1655000
1$
1/
b000000000000000111111 6
b101 8
#1660000
0$
0/
#1665000
1$
1/
b000000000000000011111 6
b100 8
#1670000
0$
0/
#1675000
1$
1/
b000000000000000001111 6
b11 8
#1680000
0$
0/
#1685000
1$
1/
b000000000000000000111 6
b10 8
#1690000
0$
0/
#1695000
1$
1/
b000000000000000000011 6
b1 8
#1700000
0$
0/
#1705000
1$
1(
1*
1/
13
b000000000000000000001 6
07
b0 8
#1710000
0$
0/
#1715000
1$
0(
1/
03
b000000000011111110010 6
b1010 8
#1720000
b1111111010 "
0$
1&
0*
b1111111010 -
0/
11
#1725000
1$
1/
b1111111010 5
#1730000
0$
0&
1'
0/
01
12
#1735000
1$
1/
b000000000011111110100 6
17
#1740000
0$
0'
0/
02
#1745000
1$
1/
b000000000001111111010 6
b1001 8
#1750000
0$
0/
#1755000
1$
1/
b000000000000111111101 6
b1000 8
#1760000
0$
0/
#1765000
1$
1/
b000000000000011111110 6
b111 8
#1770000
0$
0/
#1775000
1$
1/
b000000000000001111111 6
b110 8
#1780000
0$
0/
#1785000
1$
1/
b000000000000000111111 6
b101 8
#1790000
0$
0/
#1795000
1$
1/
b000000000000000011111 6
b100 8
#1800000
0$
0/
#1805000
1$
1/
b000000000000000001111 6
b11 8
#1810000
0$
0/
#1815000
1$
1/
b000000000000000000111 6
b10 8
#1820000
0$
0/
#1825000
1$
1/
b000000000000000000011 6
b1 8
#1830000
0$
0/
#1835000
1$
1(
1*
1/
13
b000000000000000000001 6
07
b0 8
#1840000
0$
0/
#1845000
1$
0(
1/
03
b000000000011111110100 6
b1010 8
#1850000
b1111111011 "
0$
1&
0*
b1111111011 -
0/
11
#1855000
1$
1/
b1111111011 5
#1860000
0$
0&
1'
0/
01
12
#1865000
1$
1/
b000000000011111110110 6
17
#1870000
0$
0'
0/
02
#1875000
1$
1/
b000000000001111111011 6
b1001 8
#1880000
0$
0/
#1885000
1$
1/
b000000000000111111101 6
b1000 8
#1890000
0$
0/
#1895000
1$
1/
b000000000000011111110 6
b111 8
#1900000
0$
0/
#1905000
1$
1/
b000000000000001111111 6
b110 8
#1910000
0$
0/
#1915000
1$
1/
b000000000000000111111 6
b101 8
#1920000
0$
0/
#1925000
1$
1/
b000000000000000011111 6
b100 8
#1930000
0$
0/
#1935000
1$
1/
b000000000000000001111 6
b11 8
#1940000
0$
0/
#1945000
1$
1/
b000000000000000000111 6
b10 8
#1950000
0$
0/
#1955000
1$
1/
b000000000000000000011 6
b1 8
#1960000
0$
0/
#1965000
1$
1(
1*
1/
13
b000000000000000000001 6
07
b0 8
#1970000
0$
0/
#1975000
1$
0(
1/
03
b000000000011111110110 6
b1010 8
#1980000
b1111111100 "
0$
1&
0*
b1111111100 -
0/
11
#1985000
1$
1/
b1111111100 5
#1990000
0$
0&
1'
0/
01
12
#1995000
1$
1/
b000000000011111111000 6
17
#2000000
0$
0'
0/
02
#2005000
1$
1/
b000000000001111111100 6
b1001 8
#2010000
0$
0/
#2015000
1$
1/
b000000000000111111110 6
b1000 8
#2020000
0$
0/
#2025000
1$
1/
b000000000000011111111 6
b111 8
#2030000
0$
0/
#2035000
1$
1/
b000000000000001111111 6
b110 8
#2040000
0$
0/
#2045000
1$
1/
b000000000000000111111 6
b101 8
#2050000
0$
0/
#2055000
1$
1/
b000000000000000011111 6
b100 8
#2060000
0$
0/
#2065000
1$
1/
b000000000000000001111 6
b11 8
#2070000
0$
0/
#2075000
1$
1/
b000000000000000000111 6
b10 8
#2080000
0$
0/
#2085000
1$
1/
b000000000000000000011 6
b1 8
#2090000
0$
0/
#2095000
1$
1(
1*
1/
13
b000000000000000000001 6
07
b0 8
#2100000
0$
0/
#2105000
1$
0(
1/
03
b000000000011111111000 6
b1010 8
#2110000
b1111111101 "
0$
1&
0*
b1111111101 -
0/
11
#2115000
1$
1/
b1111111101 5
#2120000
0$
0&
1'
0/
01
12
#2125000
1$
1/
b000000000011111111010 6
17
#2130000
0$
0'
0/
02
#2135000
1$
1/
b000000000001111111101 6
b1001 8
#2140000
0$
0/
#2145000
1$
1/
b000000000000111111110 6
b1000 8
#2150000
0$
0/
#2155000
1$
1/
b000000000000011111111 6
b111 8
#2160000
0$
0/
#2165000
1$
1/
b000000000000001111111 6
b110 8
#2170000
0$
0/
#2175000
1$
1/
b000000000000000111111 6
b101 8
#2180000
0$
0/
#2185000
1$
1/
b000000000000000011111 6
b100 8
#2190000
0$
0/
#2195000
1$
1/
b000000000000000001111 6
b11 8
#2200000
0$
0/
#2205000
1$
1/
b000000000000000000111 6
b10 8
#2210000
0$
0/
#2215000
1$
1/
b000000000000000000011 6
b1 8
#2220000
0$
0/
#2225000
1$
1(
1*
1/
13
b000000000000000000001 6
07
b0 8
#2230000
0$
0/
#2235000
1$
0(
1/
03
b000000000011111111010 6
b1010 8
#2240000
b1111111110 "
0$
1&
0*
b1111111110 -
0/
11
#2245000
1$
1/
b1111111110 5
#2250000
0$
0&
1'
0/
01
12
#2255000
1$
1/
b000000000011111111100 6
17
#2260000
0$
0'
0/
02
#2265000
1$
1/
b000000000001111111110 6
b1001 8
#2270000
0$
0/
#2275000
1$
1/
b000000000000111111111 6
b1000 8
#2280000
0$
0/
#2285000
1$
1/
b000000000000011111111 6
b111 8
#2290000
0$
0/
#2295000
1$
1/
b000000000000001111111 6
b110 8
#2300000
0$
0/
#2305000
1$
1/
b000000000000000111111 6
b101 8
#2310000
0$
0/
#2315000
1$
1/
b000000000000000011111 6
b100 8
#2320000
0$
0/
#2325000
1$
1/
b000000000000000001111 6
b11 8
#2330000
0$
0/
#2335000
1$
1/
b000000000000000000111 6
b10 8
#2340000
0$
0/
#2345000
1$
1/
b000000000000000000011 6
b1 8
#2350000
0$
0/
#2355000
1$
1(
1*
1/
13
b000000000000000000001 6
07
b0 8
#2360000
0$
0/
#2365000
1$
0(
1/
03
b000000000011111111100 6
b1010 8
#2370000
b1111111111 "
0$
1&
0*
b1111111111 -
0/
11
#2375000
1$
1/
b1111111111 5
#2380000
0$
0&
1'
0/
01
12
#2385000
1$
1/
b000000000011111111110 6
17
#2390000
0$
0'
0/
02
#2395000
1$
1/
b000000000001111111111 6
b1001 8
#2400000
0$
0/
#2405000
1$
1/
b000000000000111111111 6
b1000 8
#2410000
0$
0/
#2415000
1$
1/
b000000000000011111111 6
b111 8
#2420000
0$
0/
#2425000
1$
1/
b000000000000001111111 6
b110 8
#2430000
0$
0/
#2435000
1$
1/
b000000000000000111111 6
b101 8
#2440000
0$
0/
#2445000
1$
1/
b000000000000000011111 6
b100 8
#2450000
0$
0/
#2455000
1$
1/
b000000000000000001111 6
b11 8
#2460000
0$
0/
#2465000
1$
1/
b000000000000000000111 6
b10 8
#2470000
0$
0/
#2475000
1$
1/
b000000000000000000011 6
b1 8
#2480000
0$
0/
#2485000
1$
1(
1*
1/
13
b000000000000000000001 6
07
b0 8
#2490000
0$
0/
#2495000
1$
0(
1/
03
b000000000011111111110 6
b1010 8
#2500000
b0000000000 "
0$
1&
0*
b0000000000 -
0/
11
#2505000
1$
1/
b0000000000 5
#2510000
0$
0&
1'
0/
01
12
#2515000
1$
1/
b000000000000000000000 6
17
#2520000
0$
0'
0/
02
#2525000
1$
1/
b1001 8
#2530000
0$
0/
#2535000
1$
1/
b1000 8
#2540000
0$
0/
#2545000
1$
1/
b111 8
#2550000
0$
0/
#2555000
1$
1/
b110 8
#2560000
0$
0/
#2565000
1$
1/
b101 8
#2570000
0$
0/
#2575000
1$
1/
b100 8
#2580000
0$
0/
#2585000
1$
1/
b11 8
#2590000
0$
0/
#2595000
1$
1/
b10 8
#2600000
0$
0/
#2605000
1$
1/
b1 8
#2610000
0$
0/
#2615000
1$
1(
1*
1/
13
07
b0 8
#2620000
0$
0/
#2625000
1$
0(
1/
03
b1010 8
#2630000
b0000000001 !
b1111101101 "
0$
1&
0*
b11111111111111101101 +
b0000000001 ,
b1111101101 -
0/
11
#2635000
1$
1/
b0000000001 4
b1111101101 5
#2640000
0$
0&
1'
0/
01
12
#2645000
1$
1/
b000000000011111011010 6
17
#2650000
0$
0'
0/
02
#2655000
1$
1/
b111111111111111101101 6
b1001 8
#2660000
0$
0/
#2665000
1$
1/
b000000000001111110110 6
b1000 8
#2670000
0$
0/
#2675000
1$
1/
b111111111110111111011 6
b111 8
#2680000
0$
0/
#2685000
1$
1/
b111111111111011111101 6
b110 8
#2690000
0$
0/
#2695000
1$
1/
b000000000001101111110 6
b101 8
#2700000
0$
0/
#2705000
1$
1/
b111111111110110111111 6
b100 8
#2710000
0$
0/
#2715000
1$
1/
b111111111111011011111 6
b11 8
#2720000
0$
0/
#2725000
1$
1/
b111111111111101101111 6
b10 8
#2730000
0$
0/
#2735000
1$
1/
b111111111111110110111 6
b1 8
#2740000
0$
0/
#2745000
b11111111111111101101 #
1$
1(
1*
b11111111111111101101 .
1/
13
b111111111111111011011 6
07
b0 8
#2750000
0$
0/
#2755000
b00000000000000000000 #
1$
0(
b00000000000000000000 .
1/
03
b000000000011111011010 6
b1010 8
#2760000
b1111101110 "
0$
1&
0*
b11111111111111101110 +
b1111101110 -
0/
11
#2765000
1$
1/
b1111101110 5
#2770000
0$
0&
1'
0/
01
12
#2775000
1$
1/
b000000000011111011100 6
17
#2780000
0$
0'
0/
02
#2785000
1$
1/
b000000000001111101110 6
b1001 8
#2790000
0$
0/
#2795000
1$
1/
b111111111110111110111 6
b1000 8
#2800000
0$
0/
#2805000
1$
1/
b111111111111011111011 6
b111 8
#2810000
0$
0/
#2815000
1$
1/
b111111111111101111101 6
b110 8
#2820000
0$
0/
#2825000
1$
1/
b000000000001110111110 6
b101 8
#2830000
0$
0/
#2835000
1$
1/
b111111111110111011111 6
b100 8
#2840000
0$
0/
#2845000
1$
1/
b111111111111011101111 6
b11 8
#2850000
0$
0/
#2855000
1$
1/
b111111111111101110111 6
b10 8
#2860000
0$
0/
#2865000
1$
1/
b111111111111110111011 6
b1 8
#2870000
0$
0/
#2875000
b11111111111111101110 #
1$
1(
1*
b11111111111111101110 .
1/
13
b111111111111111011101 6
07
b0 8
#2880000
0$
0/
#2885000
b00000000000000000000 #
1$
0(
b00000000000000000000 .
1/
03
b000000000011111011100 6
b1010 8
#2890000
b1111101111 "
0$
1&
0*
b11111111111111101111 +
b1111101111 -
0/
11
#2895000
1$
1/
b1111101111 5
#2900000
0$
0&
1'
0/
01
12
#2905000
1$
1/
b000000000011111011110 6
17
#2910000
0$
0'
0/
02
#2915000
1$
1/
b111111111111111101111 6
b1001 8
#2920000
0$
0/
#2925000
1$
1/
b111111111111111110111 6
b1000 8
#2930000
0$
0/
#2935000
1$
1/
b111111111111111111011 6
b111 8
#2940000
0$
0/
#2945000
1$
1/
b111111111111111111101 6
b110 8
#2950000
0$
0/
#2955000
1$
1/
b000000000001111111110 6
b101 8
#2960000
0$
0/
#2965000
1$
1/
b111111111110111111111 6
b100 8
#2970000
0$
0/
#2975000
1$
1/
b111111111111011111111 6
b11 8
#2980000
0$
0/
#2985000
1$
1/
b111111111111101111111 6
b10 8
#2990000
0$
0/
#2995000
1$
1/
b111111111111110111111 6
b1 8
#3000000
0$
0/
#3005000
b11111111111111101111 #
1$
1(
1*
b11111111111111101111 .
1/
13
b111111111111111011111 6
07
b0 8
#3010000
0$
0/
#3015000
b00000000000000000000 #
1$
0(
b00000000000000000000 .
1/
03
b000000000011111011110 6
b1010 8
#3020000
b1111110000 "
0$
1&
0*
b11111111111111110000 +
b1111110000 -
0/
11
#3025000
1$
1/
b1111110000 5
#3030000
0$
0&
1'
0/
01
12
#3035000
1$
1/
b000000000011111100000 6
17
#3040000
0$
0'
0/
02
#3045000
1$
1/
b000000000001111110000 6
b1001 8
#3050000
0$
0/
#3055000
1$
1/
b000000000000111111000 6
b1000 8
#3060000
0$
0/
#3065000
1$
1/
b000000000000011111100 6
b111 8
#3070000
0$
0/
#3075000
1$
1/
b000000000000001111110 6
b110 8
#3080000
0$
0/
#3085000
1$
1/
b111111111110000111111 6
b101 8
#3090000
0$
0/
#3095000
1$
1/
b111111111111000011111 6
b100 8
#3100000
0$
0/
#3105000
1$
1/
b111111111111100001111 6
b11 8
#3110000
0$
0/
#3115000
1$
1/
b111111111111110000111 6
b10 8
#3120000
0$
0/
#3125000
1$
1/
b111111111111111000011 6
b1 8
#3130000
0$
0/
#3135000
b11111111111111110000 #
1$
1(
1*
b11111111111111110000 .
1/
13
b111111111111111100001 6
07
b0 8
#3140000
0$
0/
#3145000
b00000000000000000000 #
1$
0(
b00000000000000000000 .
1/
03
b000000000011111100000 6
b1010 8
#3150000
b1111110001 "
0$
1&
0*
b11111111111111110001 +
b1111110001 -
0/
11
#3155000
1$
1/
b1111110001 5
#3160000
0$
0&
1'
0/
01
12
#3165000
1$
1/
b000000000011111100010 6
17
#3170000
0$
0'
0/
02
#3175000
1$
1/
b111111111111111110001 6
b1001 8
#3180000
0$
0/
#3185000
1$
1/
b000000000001111111000 6
b1000 8
#3190000
0$
0/
#3195000
1$
1/
b000000000000111111100 6
b111 8
#3200000
0$
0/
#3205000
1$
1/
b000000000000011111110 6
b110 8
#3210000
0$
0/
#3215000
1$
1/
b111111111110001111111 6
b101 8
#3220000
0$
0/
#3225000
1$
1/
b111111111111000111111 6
b100 8
#3230000
0$
0/
#3235000
1$
1/
b111111111111100011111 6
b11 8
#3240000
0$
0/
#3245000
1$
1/
b111111111111110001111 6
b10 8
#3250000
0$
0/
#3255000
1$
1/
b111111111111111000111 6
b1 8
#3260000
0$
0/
#3265000
b11111111111111110001 #
1$
1(
1*
b11111111111111110001 .
1/
13
b111111111111111100011 6
07
b0 8
#3270000
0$
0/
#3275000
b00000000000000000000 #
1$
0(
b00000000000000000000 .
1/
03
b000000000011111100010 6
b1010 8
#3280000
b1111110010 "
0$
1&
0*
b11111111111111110010 +
b1111110010 -
0/
11
#3285000
1$
1/
b1111110010 5
#3290000
0$
0&
1'
0/
01
12
#3295000
1$
1/
b000000000011111100100 6
17
#3300000
0$
0'
0/
02
#3305000
1$
1/
b000000000001111110010 6
b1001 8
#3310000
0$
0/
#3315000
1$
1/
b111111111110111111001 6
b1000 8
#3320000
0$
0/
#3325000
1$
1/
b000000000001011111100 6
b111 8
#3330000
0$
0/
#3335000
1$
1/
b000000000000101111110 6
b110 8
#3340000
0$
0/
#3345000
1$
1/
b111111111110010111111 6
b101 8
#3350000
0$
0/
#3355000
1$
1/
b111111111111001011111 6
b100 8
#3360000
0$
0/
#3365000
1$
1/
b111111111111100101111 6
b11 8
#3370000
0$
0/
#3375000
1$
1/
b111111111111110010111 6
b10 8
#3380000
0$
0/
#3385000
1$
1/
b111111111111111001011 6
b1 8
#3390000
0$
0/
#3395000
b11111111111111110010 #
1$
1(
1*
b11111111111111110010 .
1/
13
b111111111111111100101 6
07
b0 8
#3400000
0$
0/
#3405000
b00000000000000000000 #
1$
0(
b00000000000000000000 .
1/
03
b000000000011111100100 6
b1010 8
#3410000
b1111110011 "
0$
1&
0*
b11111111111111110011 +
b1111110011 -
0/
11
#3415000
1$
1/
b1111110011 5
#3420000
0$
0&
1'
0/
01
12
#3425000
1$
1/
b000000000011111100110 6
17
#3430000
0$
0'
0/
02
#3435000
1$
1/
b111111111111111110011 6
b1001 8
#3440000
0$
0/
